0 183 1
0 62 1
0 216 1
0 169 1
0 221 -1
0 7 -1
0 68 -1
0 10 -1
0 67 -1
0 71 -1
1 2 1
1 219 1
1 90 1
1 246 1
1 71 -1
1 111 1
1 98 -1
1 192 -1
1 9 1
1 60 -1
2 1 1
2 219 1
2 90 1
2 246 1
2 164 -1
2 111 1
2 265 -1
2 5 -1
2 192 -1
2 98 1
3 106 -1
3 224 -1
3 217 -1
3 221 -1
3 49 -1
3 209 1
3 161 -1
3 197 -1
3 68 -1
3 0 -1
4 143 -1
4 122 1
4 240 1
4 142 1
4 244 1
4 232 -1
4 259 -1
4 235 -1
4 94 -1
4 149 -1
5 98 -1
5 246 -1
5 9 1
5 20 -1
5 252 1
5 77 -1
5 122 1
5 45 1
5 143 -1
5 2 -1
6 151 1
6 109 -1
6 82 1
6 39 1
6 181 -1
6 264 -1
6 41 -1
6 23 -1
6 210 -1
6 91 -1
7 21 1
7 183 -1
7 0 -1
7 71 -1
7 216 -1
7 68 -1
7 169 -1
7 197 -1
7 147 -1
7 20 -1
8 254 1
8 250 1
8 33 1
8 231 1
8 58 -1
8 144 -1
8 13 -1
8 167 -1
8 12 -1
8 64 -1
9 122 -1
9 135 -1
9 240 -1
9 143 -1
9 232 -1
9 5 1
9 252 -1
9 17 -1
9 96 -1
9 94 1
10 120 -1
10 68 -1
10 200 -1
10 0 -1
10 118 1
10 198 -1
10 153 -1
10 206 -1
10 216 -1
10 244 -1
11 194 -1
11 52 -1
11 253 -1
11 126 -1
11 100 -1
11 195 -1
11 40 -1
11 70 -1
11 199 -1
11 135 -1
12 224 -1
12 254 1
12 167 -1
12 49 -1
12 58 -1
12 13 -1
12 212 -1
12 166 1
12 161 -1
12 106 -1
13 145 1
13 231 1
13 144 -1
13 58 -1
13 64 -1
13 254 -1
13 12 -1
13 106 -1
13 166 -1
13 217 -1
14 126 1
14 202 1
14 78 1
14 107 -1
14 77 -1
14 46 1
14 102 1
14 73 -1
14 203 -1
14 164 -1
15 96 1
15 142 1
15 232 1
15 143 1
15 259 -1
15 4 1
15 184 1
15 94 -1
15 240 1
15 149 -1
16 131 -1
16 255 -1
16 92 -1
16 209 -1
16 179 -1
16 165 -1
16 117 -1
16 214 -1
16 189 1
16 22 -1
17 122 1
17 240 -1
17 35 -1
17 135 -1
17 241 1
17 9 -1
17 175 -1
17 205 -1
17 194 1
17 252 -1
18 165 1
18 130 -1
18 114 1
18 249 1
18 180 1
18 41 -1
18 124 -1
18 39 -1
18 27 1
18 255 -1
19 72 1
19 204 1
19 142 1
19 115 -1
19 235 1
19 232 1
19 184 -1
19 15 -1
19 113 -1
19 149 -1
20 50 1
20 71 1
20 240 -1
20 5 -1
20 146 -1
20 143 -1
20 259 -1
20 39 -1
20 156 -1
20 7 -1
21 234 -1
21 118 1
21 7 1
21 153 -1
21 65 -1
21 86 -1
21 200 1
21 56 1
21 69 -1
21 226 1
22 255 -1
22 54 -1
22 182 -1
22 114 -1
22 207 1
22 223 -1
22 260 -1
22 27 -1
22 256 -1
22 92 -1
23 103 1
23 257 1
23 181 -1
23 130 -1
23 6 -1
23 260 -1
23 151 -1
23 211 -1
23 91 -1
23 264 1
24 125 -1
24 160 -1
24 195 -1
24 100 1
24 169 -1
24 79 -1
24 87 -1
24 120 -1
24 186 -1
24 122 -1
25 200 1
25 29 1
25 62 -1
25 59 1
25 16 -1
25 122 -1
25 56 1
25 198 -1
25 92 -1
25 206 -1
26 176 1
26 84 1
26 95 1
26 110 -1
26 237 -1
26 227 1
26 138 -1
26 58 -1
26 57 -1
26 140 -1
27 54 1
27 114 1
27 223 1
27 18 1
27 22 -1
27 170 -1
27 260 -1
27 238 -1
27 180 1
27 158 1
28 79 -1
28 246 1
28 199 1
28 202 1
28 107 1
28 102 1
28 190 -1
28 155 1
28 191 1
28 219 -1
29 200 1
29 56 1
29 120 -1
29 25 1
29 62 -1
29 21 1
29 122 -1
29 160 -1
29 17 -1
29 169 -1
30 63 1
30 120 -1
30 106 -1
30 92 -1
30 227 1
30 136 -1
30 61 -1
30 17 -1
30 53 -1
30 35 -1
31 88 1
31 248 -1
31 150 1
31 116 1
31 258 -1
31 139 -1
31 138 -1
31 56 -1
31 92 -1
31 179 -1
32 176 1
32 129 -1
32 227 1
32 140 1
32 163 1
32 237 1
32 84 1
32 177 1
32 92 1
32 242 -1
33 8 1
33 250 1
33 177 -1
33 144 -1
33 260 -1
33 192 -1
33 164 -1
33 2 -1
33 45 -1
33 111 -1
34 261 -1
34 118 -1
34 86 -1
34 171 -1
34 185 -1
34 110 -1
34 65 -1
34 218 1
34 196 -1
34 113 -1
35 61 -1
35 241 1
35 17 -1
35 146 -1
35 266 1
35 240 -1
35 47 -1
35 214 -1
35 70 1
35 197 -1
36 14 1
36 178 -1
36 126 1
36 78 1
36 73 -1
36 107 -1
36 152 -1
36 129 -1
36 90 -1
36 76 -1
37 265 1
37 66 1
37 74 -1
37 104 1
37 202 1
37 243 -1
37 123 1
37 144 -1
37 38 -1
37 203 -1
38 203 1
38 202 1
38 66 1
38 37 -1
38 266 -1
38 1 -1
38 98 1
38 111 -1
38 191 -1
38 2 -1
39 151 1
39 6 1
39 82 1
39 210 -1
39 257 -1
39 18 -1
39 264 -1
39 109 -1
39 181 -1
39 81 -1
40 190 1
40 79 1
40 155 -1
40 11 -1
40 107 -1
40 28 1
40 202 1
40 74 1
40 125 -1
40 102 -1
41 165 1
41 249 -1
41 117 1
41 18 -1
41 6 -1
41 236 -1
41 182 1
41 130 -1
41 168 1
41 124 -1
42 249 -1
42 81 -1
42 91 -1
42 172 -1
42 251 -1
42 256 1
42 82 -1
42 57 -1
42 108 -1
42 105 -1
43 216 -1
43 47 -1
43 195 -1
43 245 -1
43 253 -1
43 266 -1
43 154 -1
43 186 1
43 71 -1
43 201 -1
44 187 1
44 158 -1
44 103 -1
44 181 -1
44 54 -1
44 114 -1
44 193 1
44 205 1
44 22 -1
44 120 -1
45 192 -1
45 256 -1
45 5 1
45 249 -1
45 152 1
45 9 1
45 260 -1
45 207 -1
45 67 -1
45 186 -1
46 78 1
46 202 1
46 73 1
46 89 1
46 14 1
46 191 1
46 28 1
46 107 1
46 40 -1
46 243 -1
47 67 -1
47 148 -1
47 175 1
47 93 -1
47 70 -1
47 229 -1
47 43 -1
47 146 1
47 253 -1
47 252 -1
48 192 -1
48 164 1
48 98 1
48 152 -1
48 77 1
48 5 -1
48 107 1
48 74 1
48 246 -1
48 265 -1
49 161 1
49 64 -1
49 217 -1
49 231 -1
49 166 -1
49 224 -1
49 58 -1
49 12 -1
49 68 -1
49 106 -1
50 20 1
50 156 -1
50 197 -1
50 201 -1
50 71 1
50 188 -1
50 146 -1
50 62 -1
50 93 -1
50 47 -1
51 91 -1
51 210 1
51 230 1
51 105 1
51 251 1
51 236 -1
51 260 -1
51 172 1
51 108 1
51 103 -1
52 195 -1
52 148 1
52 229 1
52 266 -1
52 67 -1
52 11 -1
52 47 -1
52 194 1
52 175 -1
52 241 -1
53 160 1
53 61 -1
53 156 -1
53 146 -1
53 214 -1
53 266 -1
53 35 -1
53 29 -1
53 122 -1
53 135 -1
54 114 1
54 27 1
54 223 1
54 22 -1
54 103 -1
54 260 -1
54 18 1
54 180 1
54 124 -1
54 181 -1
55 121 1
55 206 -1
55 179 1
55 141 1
55 207 -1
55 22 1
55 249 -1
55 186 -1
55 234 -1
55 256 -1
56 200 1
56 29 1
56 92 -1
56 21 1
56 226 1
56 122 -1
56 151 -1
56 39 -1
56 139 -1
56 234 -1
57 224 -1
57 117 -1
57 165 -1
57 84 -1
57 242 -1
57 81 -1
57 42 -1
57 18 -1
57 41 -1
57 182 -1
58 64 1
58 250 -1
58 224 -1
58 254 -1
58 167 1
58 144 1
58 49 -1
58 217 -1
58 69 -1
58 12 -1
59 261 1
59 185 1
59 86 -1
59 112 1
59 118 1
59 34 -1
59 171 -1
59 25 1
59 198 -1
59 110 1
60 122 1
60 240 -1
60 111 1
60 259 -1
60 4 -1
60 99 1
60 149 -1
60 17 -1
60 143 -1
60 156 -1
61 156 1
61 35 -1
61 70 -1
61 241 -1
61 201 1
61 154 -1
61 47 -1
61 195 -1
61 146 -1
61 197 -1
62 183 1
62 216 1
62 197 -1
62 0 1
62 221 -1
62 169 1
62 201 -1
62 262 -1
62 214 -1
62 68 -1
63 30 1
63 227 -1
63 206 -1
63 237 -1
63 121 -1
63 116 -1
63 25 -1
63 249 -1
63 120 -1
63 32 -1
64 58 1
64 217 -1
64 49 -1
64 161 -1
64 166 1
64 250 -1
64 144 1
64 68 -1
64 162 1
64 97 1
65 113 1
65 171 -1
65 185 -1
65 218 -1
65 118 -1
65 101 1
65 34 -1
65 110 -1
65 261 -1
65 21 -1
66 37 1
66 265 1
66 111 1
66 38 1
66 2 -1
66 202 1
66 178 -1
66 203 1
66 123 1
66 164 -1
67 229 1
67 47 -1
67 148 -1
67 71 -1
67 93 1
67 175 -1
67 70 -1
67 252 1
67 197 -1
67 52 -1
68 69 1
68 153 1
68 216 -1
68 217 1
68 64 -1
68 183 -1
68 0 -1
68 169 -1
68 62 -1
68 7 -1
69 68 1
69 171 -1
69 110 -1
69 216 -1
69 153 1
69 217 1
69 169 -1
69 58 -1
69 161 -1
69 64 -1
70 266 1
70 229 -1
70 47 -1
70 148 -1
70 175 1
70 67 -1
70 253 1
70 61 -1
70 93 -1
70 87 1
71 67 -1
71 197 -1
71 216 -1
71 188 1
71 229 -1
71 201 -1
71 7 -1
71 20 1
71 221 -1
71 93 -1
72 184 1
72 94 1
72 194 -1
72 96 1
72 232 -1
72 131 -1
72 19 1
72 93 -1
72 142 -1
72 15 1
73 78 1
73 178 1
73 202 -1
73 46 1
73 190 -1
73 60 -1
73 14 -1
73 28 -1
73 11 -1
73 155 1
74 190 1
74 265 1
74 37 -1
74 79 1
74 204 1
74 202 -1
74 164 -1
74 40 1
74 107 -1
74 48 1
75 129 -1
75 224 -1
75 176 -1
75 76 -1
75 58 1
75 12 1
75 196 -1
75 166 1
75 250 -1
75 145 -1
76 119 -1
76 224 -1
76 212 -1
76 227 -1
76 92 -1
76 116 1
76 129 -1
76 248 -1
76 58 -1
76 242 -1
77 192 1
77 152 1
77 5 -1
77 98 1
77 246 1
77 14 -1
77 80 1
77 45 -1
77 48 1
77 4 -1
78 46 1
78 73 1
78 202 1
78 89 1
78 178 1
78 14 1
78 28 1
78 135 1
78 80 1
78 155 1
79 190 1
79 40 1
79 28 -1
79 100 -1
79 154 -1
79 107 1
79 253 -1
79 216 -1
79 155 1
79 74 1
80 28 -1
80 107 -1
80 77 1
80 246 -1
80 78 1
80 102 1
80 122 -1
80 190 -1
80 191 1
80 5 -1
81 130 1
81 206 -1
81 42 -1
81 105 -1
81 82 -1
81 230 -1
81 109 -1
81 91 -1
81 264 -1
81 236 -1
82 264 1
82 151 1
82 6 1
82 210 -1
82 39 1
82 109 1
82 206 -1
82 251 -1
82 249 -1
82 255 -1
83 258 1
83 215 1
83 248 1
83 213 1
83 84 1
83 95 1
83 138 1
83 116 -1
83 256 -1
83 220 -1
84 95 1
84 176 1
84 242 1
84 83 1
84 227 1
84 163 1
84 57 -1
84 26 1
84 32 1
84 247 -1
85 233 1
85 196 -1
85 218 -1
85 101 -1
85 65 -1
85 113 -1
85 34 -1
85 110 -1
85 72 -1
85 171 -1
86 118 -1
86 261 -1
86 34 -1
86 185 -1
86 110 -1
86 234 -1
86 59 -1
86 21 -1
86 65 -1
86 196 1
87 266 1
87 175 1
87 70 1
87 67 -1
87 195 1
87 229 -1
87 197 -1
87 214 -1
87 201 -1
87 52 -1
88 116 1
88 248 -1
88 31 1
88 258 -1
88 215 -1
88 139 -1
88 119 -1
88 182 -1
88 213 -1
88 83 -1
89 78 1
89 46 1
89 102 -1
89 73 -1
89 126 -1
89 40 -1
89 74 -1
89 107 -1
89 194 -1
89 11 -1
90 219 1
90 2 1
90 115 -1
90 1 1
90 192 -1
90 65 -1
90 164 -1
90 111 -1
90 235 -1
90 157 -1
91 251 -1
91 172 1
91 130 -1
91 51 -1
91 108 -1
91 210 1
91 42 -1
91 132 -1
91 105 -1
91 230 1
92 119 1
92 212 -1
92 56 -1
92 227 1
92 116 -1
92 16 -1
92 22 -1
92 159 -1
92 136 1
92 181 -1
93 47 -1
93 67 1
93 229 1
93 146 -1
93 175 -1
93 70 -1
93 148 -1
93 94 -1
93 71 -1
93 266 -1
94 219 -1
94 232 -1
94 194 -1
94 93 -1
94 72 1
94 143 -1
94 148 -1
94 96 1
94 4 -1
94 67 -1
95 84 1
95 242 1
95 176 1
95 227 1
95 163 1
95 83 1
95 119 1
95 129 1
95 212 -1
95 26 1
96 232 1
96 143 1
96 15 1
96 142 1
96 244 -1
96 94 1
96 119 -1
96 122 -1
96 9 -1
96 72 1
97 64 1
97 217 -1
97 166 1
97 21 -1
97 200 -1
97 260 -1
97 27 -1
97 170 -1
97 17 -1
97 162 -1
98 5 -1
98 152 1
98 107 1
98 135 1
98 77 1
98 246 -1
98 2 1
98 20 -1
98 192 1
98 243 -1
99 60 1
99 111 1
99 178 1
99 203 -1
99 90 -1
99 66 -1
99 149 1
99 142 -1
99 4 -1
99 115 -1
100 253 -1
100 195 1
100 154 1
100 70 -1
100 79 -1
100 47 -1
100 11 -1
100 24 1
100 197 -1
100 216 -1
101 218 1
101 65 1
101 110 -1
101 118 -1
101 171 1
101 233 -1
101 261 -1
101 113 -1
101 85 -1
101 196 -1
102 28 1
102 126 1
102 125 -1
102 14 1
102 115 -1
102 89 -1
102 107 1
102 199 -1
102 80 1
102 40 -1
103 23 1
103 172 -1
103 260 -1
103 54 -1
103 257 1
103 114 -1
103 236 1
103 181 -1
103 180 -1
103 264 -1
104 37 1
104 265 1
104 123 1
104 74 -1
104 66 -1
104 204 -1
104 243 -1
104 43 -1
104 107 -1
104 154 -1
105 230 1
105 132 1
105 108 1
105 251 1
105 172 -1
105 91 -1
105 81 -1
105 264 -1
105 210 -1
105 51 1
106 217 -1
106 224 1
106 209 1
106 3 -1
106 131 1
106 49 -1
106 58 -1
106 198 -1
106 13 -1
106 166 -1
107 191 1
107 79 1
107 28 1
107 246 -1
107 190 -1
107 98 1
107 202 -1
107 164 -1
107 40 -1
107 265 1
108 132 1
108 105 1
108 91 -1
108 230 1
108 251 1
108 51 1
108 172 -1
108 42 -1
108 210 -1
108 249 -1
109 6 -1
109 151 1
109 264 1
109 210 -1
109 82 1
109 206 -1
109 39 -1
109 81 -1
109 236 1
109 172 -1
110 196 1
110 171 1
110 261 1
110 185 1
110 34 -1
110 65 -1
110 86 -1
110 69 -1
110 218 -1
110 118 -1
111 142 -1
111 2 1
111 66 1
111 60 1
111 250 -1
111 90 -1
111 99 1
111 203 -1
111 1 1
111 5 -1
112 120 1
112 59 1
112 185 -1
112 261 1
112 205 -1
112 226 -1
112 43 -1
112 162 -1
112 153 -1
112 233 -1
113 65 1
113 196 -1
113 218 -1
113 118 -1
113 34 -1
113 171 -1
113 261 -1
113 101 -1
113 233 -1
113 110 -1
114 54 1
114 223 1
114 27 1
114 18 1
114 22 -1
114 180 1
114 103 -1
114 207 -1
114 260 -1
114 182 -1
115 235 -1
115 90 -1
115 204 -1
115 164 1
115 142 -1
115 219 -1
115 126 1
115 2 -1
115 149 -1
115 19 -1
116 248 1
116 258 1
116 88 1
116 92 -1
116 119 -1
116 150 1
116 181 -1
116 193 -1
116 213 1
116 83 -1
117 165 1
117 182 1
117 41 1
117 168 1
117 57 -1
117 18 -1
117 181 -1
117 131 -1
117 207 -1
117 260 -1
118 261 -1
118 86 -1
118 34 -1
118 185 -1
118 65 -1
118 21 1
118 234 -1
118 218 -1
118 113 -1
118 110 -1
119 212 1
119 256 -1
119 92 1
119 131 -1
119 258 -1
119 193 1
119 209 -1
119 96 -1
119 242 1
119 76 -1
120 244 -1
120 29 -1
120 198 -1
120 205 -1
120 10 -1
120 200 -1
120 112 1
120 4 -1
120 86 -1
120 106 -1
121 55 1
121 206 1
121 179 1
121 216 -1
121 41 1
121 234 -1
121 201 -1
121 10 -1
121 186 -1
121 81 -1
122 244 -1
122 4 1
122 9 -1
122 17 1
122 143 -1
122 259 -1
122 240 -1
122 60 1
122 96 -1
122 135 -1
123 37 1
123 111 -1
123 66 1
123 33 -1
123 104 1
123 260 -1
123 203 -1
123 15 -1
123 38 -1
123 19 -1
124 182 -1
124 211 1
124 180 -1
124 18 -1
124 168 -1
124 54 -1
124 41 -1
124 234 -1
124 130 -1
124 23 -1
125 24 -1
125 135 -1
125 195 -1
125 244 -1
125 102 -1
125 122 -1
125 205 -1
125 79 -1
125 235 -1
125 4 -1
126 14 1
126 102 1
126 11 -1
126 135 -1
126 235 -1
126 164 -1
126 129 -1
126 115 1
126 107 -1
126 155 -1
127 242 1
127 105 -1
127 95 -1
127 138 1
127 57 -1
127 76 -1
127 220 -1
127 176 -1
127 163 -1
127 81 -1
128 250 1
128 166 -1
128 162 -1
128 217 -1
128 5 -1
128 64 1
128 21 -1
128 169 -1
128 92 -1
128 153 -1
129 176 1
129 227 1
129 32 -1
129 163 1
129 237 -1
129 75 -1
129 95 1
129 76 -1
129 84 1
129 177 -1
130 91 -1
130 251 -1
130 18 -1
130 81 1
130 220 -1
130 23 -1
130 249 -1
130 165 -1
130 207 1
130 172 -1
131 165 -1
131 209 1
131 16 -1
131 182 1
131 119 -1
131 117 -1
131 106 1
131 224 -1
131 58 -1
131 72 -1
132 105 1
132 230 1
132 108 1
132 91 -1
132 251 1
132 172 1
132 210 1
132 81 -1
132 42 -1
132 264 -1
133 259 1
133 192 -1
133 149 1
133 244 1
133 152 -1
133 240 -1
133 77 -1
133 4 -1
133 164 -1
133 142 1
134 173 1
134 220 1
134 256 -1
134 22 -1
134 212 -1
134 92 -1
134 119 -1
134 263 -1
134 247 -1
134 255 -1
135 9 -1
135 17 -1
135 125 -1
135 122 -1
135 98 1
135 175 -1
135 126 -1
135 240 -1
135 67 -1
135 47 -1
136 163 1
136 227 1
136 176 -1
136 92 1
136 177 -1
136 187 1
136 56 -1
136 198 -1
136 129 -1
136 237 -1
137 92 1
137 119 1
137 256 -1
137 182 -1
137 131 -1
137 209 -1
137 117 -1
137 227 1
137 181 -1
137 255 -1
138 248 -1
138 83 1
138 57 -1
138 105 -1
138 230 -1
138 213 1
138 258 -1
138 84 1
138 127 1
138 95 -1
139 228 1
139 56 -1
139 234 -1
139 187 -1
139 22 -1
139 21 -1
139 88 -1
139 86 -1
139 182 -1
139 200 -1
140 176 1
140 163 1
140 32 1
140 227 1
140 177 1
140 248 -1
140 237 1
140 92 -1
140 129 -1
140 76 1
141 225 1
141 249 -1
141 207 -1
141 180 -1
141 22 1
141 239 1
141 55 1
141 182 1
141 18 -1
141 256 -1
142 143 1
142 232 1
142 15 1
142 96 1
142 4 1
142 235 -1
142 149 -1
142 240 -1
142 244 1
142 111 -1
143 142 1
143 232 1
143 4 -1
143 96 1
143 240 1
143 244 -1
143 15 1
143 122 -1
143 9 -1
143 94 -1
144 250 1
144 13 -1
144 64 1
144 58 1
144 254 -1
144 145 1
144 8 -1
144 162 -1
144 33 -1
144 37 -1
145 13 1
145 58 1
145 231 -1
145 144 1
145 254 1
145 12 -1
145 167 -1
145 69 -1
145 106 -1
145 110 -1
146 47 1
146 93 -1
146 266 -1
146 175 1
146 35 -1
146 214 -1
146 156 -1
146 197 -1
146 229 -1
146 62 -1
147 7 -1
147 143 -1
147 135 1
147 119 -1
147 96 -1
147 15 -1
147 142 -1
147 210 -1
147 10 -1
147 122 -1
148 67 -1
148 229 1
148 47 -1
148 70 -1
148 266 -1
148 252 1
148 175 -1
148 253 -1
148 52 1
148 93 -1
149 235 1
149 244 1
149 142 -1
149 4 -1
149 122 1
149 219 -1
149 143 -1
149 148 -1
149 60 -1
149 205 -1
150 168 -1
150 116 1
150 258 -1
150 182 -1
150 31 1
150 124 -1
150 117 -1
150 83 -1
150 248 1
150 159 -1
151 6 1
151 109 1
151 82 1
151 39 1
151 264 1
151 181 -1
151 23 -1
151 249 -1
151 206 -1
151 91 1
152 246 1
152 77 1
152 192 1
152 98 1
152 191 1
152 45 1
152 202 -1
152 107 1
152 48 -1
152 5 -1
153 68 1
153 21 -1
153 69 1
153 217 1
153 10 -1
153 64 -1
153 197 -1
153 226 -1
153 183 -1
153 169 -1
154 100 1
154 201 -1
154 197 -1
154 195 -1
154 79 -1
154 61 -1
154 43 -1
154 188 -1
154 214 -1
154 47 -1
155 79 1
155 214 -1
155 40 -1
155 28 1
155 17 -1
155 122 -1
155 197 -1
155 126 -1
155 210 -1
155 149 -1
156 61 1
156 146 -1
156 266 -1
156 201 -1
156 50 -1
156 253 -1
156 20 -1
156 70 -1
156 195 -1
156 262 -1
157 219 -1
157 90 -1
157 65 -1
157 115 -1
157 71 -1
157 2 -1
157 204 -1
157 190 -1
157 192 -1
157 19 -1
158 18 1
158 27 1
158 180 1
158 114 1
158 54 1
158 260 -1
158 44 -1
158 103 -1
158 249 -1
158 223 1
159 225 1
159 223 -1
159 92 -1
159 122 -1
159 241 -1
159 180 -1
159 227 -1
159 260 -1
159 141 -1
159 177 -1
160 53 1
160 24 -1
160 262 -1
160 122 -1
160 29 -1
160 205 -1
160 186 -1
160 240 -1
160 200 -1
160 100 -1
161 49 1
161 224 -1
161 64 -1
161 247 1
161 69 -1
161 169 -1
161 58 -1
161 68 -1
161 231 -1
161 196 -1
162 217 -1
162 64 1
162 68 -1
162 166 -1
162 69 -1
162 143 -1
162 227 -1
162 13 -1
162 128 -1
162 231 1
163 176 1
163 140 1
163 227 1
163 136 1
163 84 1
163 95 1
163 242 1
163 248 -1
163 129 1
163 32 1
164 2 -1
164 246 1
164 192 1
164 115 1
164 107 -1
164 219 -1
164 126 -1
164 90 -1
164 74 -1
164 28 -1
165 117 1
165 18 1
165 182 -1
165 41 1
165 131 -1
165 249 -1
165 130 -1
165 57 -1
165 255 1
165 168 -1
166 64 1
166 217 -1
166 49 -1
166 224 -1
166 250 -1
166 162 -1
166 97 1
166 58 -1
166 128 -1
166 12 1
167 58 1
167 12 -1
167 224 -1
167 254 -1
167 250 -1
167 217 -1
167 106 -1
167 3 -1
167 69 -1
167 145 -1
168 182 1
168 117 1
168 124 -1
168 165 -1
168 198 -1
168 150 -1
168 41 1
168 260 1
168 119 -1
168 179 -1
169 0 1
169 62 1
169 183 1
169 68 -1
169 7 -1
169 69 -1
169 197 -1
169 161 -1
169 216 -1
169 71 -1
170 27 -1
170 39 -1
170 122 -1
170 221 -1
170 260 -1
170 214 -1
170 81 -1
170 186 -1
170 0 -1
170 198 -1
171 110 1
171 34 -1
171 65 -1
171 196 -1
171 218 1
171 69 -1
171 261 -1
171 101 1
171 86 -1
171 118 -1
172 251 1
172 91 1
172 257 1
172 105 -1
172 103 -1
172 130 -1
172 132 1
172 6 -1
172 82 -1
172 42 -1
173 134 1
173 256 1
173 220 1
173 42 1
173 22 -1
173 209 -1
173 207 -1
173 247 -1
173 224 -1
173 179 -1
174 264 -1
174 172 1
174 82 1
174 103 -1
174 220 -1
174 81 -1
174 132 -1
174 249 -1
174 91 -1
174 223 -1
175 229 -1
175 266 1
175 47 1
175 70 1
175 67 -1
175 148 -1
175 93 -1
175 146 1
175 252 -1
175 87 1
176 163 1
176 140 1
176 84 1
176 237 1
176 129 1
176 32 1
176 227 1
176 242 1
176 95 1
176 177 1
177 227 1
177 237 1
177 176 1
177 32 1
177 140 1
177 136 -1
177 129 -1
177 163 -1
177 159 -1
177 33 -1
178 73 1
178 78 1
178 66 -1
178 202 -1
178 99 1
178 36 -1
178 14 -1
178 60 -1
178 203 -1
178 80 -1
179 255 -1
179 207 1
179 55 1
179 121 1
179 16 -1
179 206 -1
179 225 -1
179 256 -1
179 117 -1
179 189 -1
180 18 1
180 124 -1
180 114 1
180 260 -1
180 141 -1
180 54 1
180 103 -1
180 27 1
180 225 -1
180 159 -1
181 23 -1
181 6 -1
181 251 -1
181 151 -1
181 130 -1
181 257 -1
181 39 -1
181 82 -1
181 117 -1
181 18 -1
182 124 -1
182 165 -1
182 168 1
182 117 1
182 255 -1
182 22 -1
182 260 -1
182 198 1
182 131 1
182 41 1
183 62 1
183 0 1
183 216 1
183 201 -1
183 7 -1
183 221 -1
183 169 1
183 68 -1
183 197 -1
183 214 -1
184 72 1
184 194 -1
184 15 1
184 146 -1
184 94 1
184 96 -1
184 240 -1
184 232 -1
184 241 -1
184 52 -1
185 261 1
185 118 -1
185 34 -1
185 65 -1
185 110 1
185 234 -1
185 86 -1
185 59 1
185 218 -1
185 171 -1
186 262 -1
186 216 -1
186 266 -1
186 93 -1
186 43 1
186 146 -1
186 197 -1
186 201 -1
186 170 -1
186 70 -1
187 44 1
187 193 1
187 136 1
187 131 -1
187 212 -1
187 139 -1
187 261 -1
187 76 -1
187 119 -1
187 224 -1
188 221 -1
188 201 -1
188 71 1
188 216 -1
188 197 1
188 154 -1
188 67 -1
188 68 -1
188 186 -1
188 0 -1
189 255 1
189 165 1
189 117 -1
189 179 -1
189 22 1
189 16 1
189 249 -1
189 41 -1
189 211 -1
189 238 1
190 40 1
190 79 1
190 74 1
190 202 -1
190 28 -1
190 107 -1
190 73 -1
190 204 1
190 243 -1
190 191 -1
191 202 1
191 107 1
191 152 1
191 246 1
191 28 1
191 135 -1
191 87 -1
191 190 -1
191 79 -1
191 78 -1
192 77 1
192 45 -1
192 246 1
192 152 1
192 90 -1
192 164 1
192 2 -1
192 5 -1
192 98 1
192 219 -1
193 119 1
193 165 -1
193 116 -1
193 187 1
193 242 -1
193 212 -1
193 161 -1
193 117 -1
193 64 -1
193 248 -1
194 11 -1
194 184 -1
194 94 -1
194 72 -1
194 266 -1
194 229 1
194 52 1
194 175 -1
194 17 1
194 70 -1
195 100 1
195 52 -1
195 253 -1
195 47 -1
195 43 -1
195 154 -1
195 125 -1
195 87 1
195 175 -1
195 70 -1
196 110 1
196 171 -1
196 113 -1
196 261 -1
196 233 -1
196 34 -1
196 86 1
196 65 1
196 49 -1
196 218 1
197 201 -1
197 62 -1
197 221 -1
197 71 -1
197 214 -1
197 188 1
197 67 -1
197 47 -1
197 216 -1
197 146 -1
198 182 1
198 260 -1
198 120 -1
198 234 -1
198 200 -1
198 168 -1
198 86 -1
198 10 -1
198 118 -1
198 106 -1
199 28 1
199 195 -1
199 235 -1
199 194 -1
199 125 -1
199 11 -1
199 149 -1
199 102 -1
199 115 -1
199 79 -1
200 56 1
200 29 1
200 25 1
200 198 -1
200 10 -1
200 120 -1
200 260 -1
200 21 1
200 62 -1
200 234 -1
201 197 -1
201 221 -1
201 188 -1
201 216 -1
201 183 -1
201 154 -1
201 71 -1
201 214 1
201 245 1
201 62 -1
202 191 1
202 78 1
202 246 1
202 28 1
202 203 1
202 190 -1
202 243 1
202 46 1
202 38 1
202 14 1
203 202 1
203 38 1
203 243 -1
203 14 -1
203 66 1
203 111 -1
203 90 -1
203 99 -1
203 98 -1
203 37 -1
204 115 -1
204 74 1
204 235 -1
204 190 1
204 19 1
204 79 -1
204 126 -1
204 219 -1
204 243 -1
204 40 -1
205 120 -1
205 17 -1
205 35 -1
205 143 -1
205 9 -1
205 241 -1
205 122 -1
205 240 -1
205 149 -1
205 244 -1
206 121 1
206 55 -1
206 81 -1
206 109 -1
206 82 -1
206 249 1
206 151 -1
206 179 -1
206 255 -1
206 10 -1
207 141 -1
207 179 1
207 249 -1
207 130 1
207 22 1
207 225 1
207 117 -1
207 260 -1
207 114 -1
207 18 -1
208 111 1
208 20 -1
208 257 -1
208 98 -1
208 5 -1
208 50 -1
208 99 1
208 203 -1
208 181 -1
208 1 -1
209 131 1
209 247 1
209 256 -1
209 106 1
209 217 -1
209 224 1
209 16 -1
209 119 -1
209 165 -1
209 3 1
210 82 -1
210 264 1
210 109 -1
210 39 -1
210 51 1
210 91 1
210 251 1
210 6 -1
210 105 -1
210 256 -1
211 124 1
211 257 -1
211 236 1
211 23 -1
211 264 1
211 238 -1
211 91 -1
211 255 1
211 41 -1
211 172 -1
212 119 1
212 224 -1
212 92 -1
212 163 -1
212 242 -1
212 76 -1
212 12 -1
212 263 -1
212 131 -1
212 95 -1
213 258 1
213 83 1
213 248 1
213 215 1
213 116 1
213 212 1
213 242 -1
213 210 -1
213 256 -1
213 220 -1
214 197 -1
214 221 -1
214 146 -1
214 201 1
214 216 -1
214 62 -1
214 35 -1
214 67 -1
214 253 -1
214 183 -1
215 83 1
215 258 1
215 248 1
215 213 1
215 88 -1
215 163 -1
215 147 -1
215 138 -1
215 230 -1
215 116 -1
216 62 1
216 201 -1
216 0 1
216 43 -1
216 71 -1
216 183 1
216 188 -1
216 221 -1
216 68 -1
216 69 -1
217 64 -1
217 106 -1
217 49 -1
217 68 1
217 166 -1
217 233 -1
217 209 -1
217 162 -1
217 69 1
217 58 -1
218 65 -1
218 171 1
218 233 -1
218 101 1
218 118 -1
218 113 -1
218 34 1
218 110 -1
218 261 -1
218 185 -1
219 90 1
219 2 1
219 94 -1
219 1 1
219 148 -1
219 235 -1
219 149 -1
219 164 -1
219 67 -1
219 143 -1
220 130 -1
220 256 1
220 134 1
220 173 1
220 172 -1
220 91 -1
220 42 1
220 213 -1
220 83 -1
220 119 -1
221 188 -1
221 201 -1
221 197 -1
221 216 -1
221 62 -1
221 183 -1
221 214 -1
221 0 -1
221 71 -1
221 3 -1
222 181 -1
222 25 -1
222 182 -1
222 189 -1
222 163 -1
222 16 -1
222 117 -1
222 258 -1
222 131 -1
222 116 1
223 114 1
223 54 1
223 27 1
223 22 -1
223 159 -1
223 103 -1
223 238 -1
223 181 -1
223 225 -1
223 141 -1
224 161 -1
224 212 -1
224 247 1
224 58 -1
224 106 1
224 12 -1
224 57 -1
224 49 -1
224 3 -1
224 209 1
225 141 1
225 159 1
225 18 -1
225 207 1
225 179 -1
225 239 1
225 165 -1
225 117 -1
225 182 -1
225 180 -1
226 56 1
226 21 1
226 233 -1
226 153 -1
226 124 -1
226 205 -1
226 234 -1
226 244 -1
226 112 -1
226 200 -1
227 176 1
227 177 1
227 163 1
227 84 1
227 129 1
227 242 1
227 95 1
227 92 1
227 32 1
227 136 1
228 139 1
228 21 -1
228 234 -1
228 124 -1
228 7 -1
228 182 -1
228 118 -1
228 168 -1
228 54 -1
228 216 -1
229 67 1
229 148 1
229 175 -1
229 70 -1
229 266 -1
229 47 -1
229 252 1
229 71 -1
229 93 1
229 52 1
230 105 1
230 132 1
230 91 1
230 51 1
230 251 1
230 81 -1
230 108 1
230 264 -1
230 210 -1
230 82 -1
231 13 1
231 49 -1
231 254 1
231 145 -1
231 64 1
231 161 -1
231 8 1
231 69 -1
231 217 -1
231 12 -1
232 96 1
232 143 1
232 142 1
232 15 1
232 4 -1
232 94 -1
232 9 -1
232 259 -1
232 244 1
232 240 -1
233 85 1
233 218 -1
233 196 -1
233 217 -1
233 118 -1
233 65 -1
233 101 -1
233 68 -1
233 69 -1
233 113 -1
234 21 -1
234 185 -1
234 118 -1
234 86 -1
234 198 -1
234 261 -1
234 200 -1
234 262 -1
234 124 -1
234 121 -1
235 149 1
235 115 -1
235 4 -1
235 142 -1
235 240 -1
235 219 -1
235 52 -1
235 126 -1
235 96 -1
235 199 -1
236 255 -1
236 211 1
236 41 -1
236 91 -1
236 130 -1
236 18 -1
236 109 1
236 6 -1
236 51 -1
236 81 -1
237 176 1
237 177 1
237 129 -1
237 32 1
237 227 1
237 163 -1
237 26 -1
237 205 1
237 136 -1
237 140 1
238 211 -1
238 27 -1
238 114 -1
238 236 -1
238 54 -1
238 22 1
238 124 -1
238 103 -1
238 264 -1
238 179 -1
239 225 1
239 141 1
239 241 -1
239 256 -1
239 221 -1
239 84 -1
239 159 -1
239 168 -1
239 205 -1
239 180 -1
240 4 1
240 143 1
240 244 1
240 17 -1
240 259 1
240 9 -1
240 35 -1
240 122 -1
240 20 -1
240 241 -1
241 35 1
241 61 -1
241 266 -1
241 17 1
241 52 -1
241 240 -1
241 214 -1
241 148 -1
241 159 -1
241 67 -1
242 84 1
242 95 1
242 176 1
242 227 1
242 163 1
242 119 1
242 57 -1
242 212 -1
242 131 -1
242 92 -1
243 202 1
243 203 -1
243 37 -1
243 79 1
243 190 -1
243 98 -1
243 156 -1
243 195 -1
243 11 -1
243 126 -1
244 122 -1
244 240 1
244 4 1
244 143 -1
244 259 1
244 120 -1
244 96 -1
244 149 1
244 142 1
244 232 1
245 201 1
245 43 -1
245 71 -1
245 61 -1
245 188 -1
245 266 -1
245 154 -1
245 241 -1
245 221 -1
245 197 -1
246 152 1
246 2 1
246 192 1
246 202 1
246 28 1
246 1 1
246 5 -1
246 164 1
246 107 -1
246 191 1
247 224 1
247 209 1
247 161 1
247 49 -1
247 84 -1
247 76 -1
247 131 -1
247 119 -1
247 217 -1
247 12 -1
248 258 1
248 83 1
248 116 1
248 215 1
248 213 1
248 138 -1
248 163 -1
248 88 -1
248 105 -1
248 230 -1
249 42 -1
249 18 1
249 41 -1
249 141 -1
249 165 -1
249 130 -1
249 207 -1
249 82 -1
249 206 1
249 151 -1
250 58 -1
250 144 1
250 64 -1
250 128 1
250 8 1
250 166 -1
250 49 -1
250 33 1
250 254 1
250 167 -1
251 91 -1
251 172 1
251 130 -1
251 105 1
251 82 -1
251 210 1
251 181 -1
251 132 1
251 230 1
251 108 1
252 229 1
252 67 1
252 148 1
252 175 -1
252 47 -1
252 9 -1
252 5 1
252 93 1
252 146 -1
252 17 -1
253 100 -1
253 70 1
253 195 -1
253 47 -1
253 148 -1
253 266 1
253 175 -1
253 43 -1
253 79 -1
253 214 -1
254 58 -1
254 8 1
254 12 1
254 231 1
254 144 -1
254 13 -1
254 167 -1
254 250 1
254 145 1
254 217 -1
255 189 1
255 22 -1
255 256 -1
255 236 -1
255 179 -1
255 182 -1
255 16 -1
255 82 -1
255 18 -1
255 165 1
256 255 -1
256 119 -1
256 220 1
256 209 -1
256 173 1
256 249 -1
256 210 -1
256 22 -1
256 134 -1
256 82 -1
257 23 1
257 211 -1
257 172 1
257 39 -1
257 264 1
257 130 -1
257 181 -1
257 103 1
257 82 -1
257 251 1
258 248 1
258 83 1
258 215 1
258 116 1
258 213 1
258 119 -1
258 130 -1
258 92 -1
258 88 -1
258 182 -1
259 240 1
259 244 1
259 4 -1
259 122 -1
259 232 -1
259 96 -1
259 15 -1
259 20 -1
259 143 -1
259 60 -1
260 182 -1
260 23 -1
260 198 -1
260 103 -1
260 22 -1
260 54 -1
260 180 -1
260 255 1
260 117 -1
260 236 -1
261 185 1
261 118 -1
261 34 -1
261 86 -1
261 110 1
261 171 -1
261 65 -1
261 59 1
261 196 -1
261 218 -1
262 186 -1
262 62 -1
262 201 -1
262 216 -1
262 197 -1
262 71 -1
262 0 -1
262 234 -1
262 154 -1
262 160 -1
263 212 -1
263 134 -1
263 257 -1
263 173 1
263 181 -1
263 264 -1
263 91 -1
263 105 -1
263 230 -1
263 213 -1
264 82 1
264 151 1
264 109 1
264 210 1
264 6 -1
264 257 1
264 39 -1
264 105 -1
264 81 -1
264 230 -1
265 37 1
265 74 1
265 66 1
265 2 -1
265 107 1
265 219 -1
265 202 -1
265 164 -1
265 246 -1
265 243 -1
266 70 1
266 175 1
266 229 -1
266 148 -1
266 87 1
266 146 -1
266 52 -1
266 253 1
266 35 1
266 47 -1
