num_labels: 6
exclusive_cliques {
  labels: 0
  labels: 5
}
exclusive_cliques {
  labels: 2
  labels: 5
}
subset_relations {
  parent: 0
  child: 1
}
subset_relations {
  parent: 0
  child: 2
}
subset_relations {
  parent: 0
  child: 4
}
subset_relations {
  parent: 1
  child: 3
}
subset_relations {
  parent: 1
  child: 4
}
