num_labels: 4
exclusive_cliques {
  labels: 1
  labels: 2
}
subset_relations {
  parent: 0
  child: 1
}
subset_relations {
  parent: 0
  child: 2
}
subset_relations {
  parent: 1
  child: 3
}
subset_relations {
  parent: 2
  child: 3
}
